[
    {
        "id": 767050417,
        "cohort_group": 200308,
        "final_GTGPA": 3.2243
    },
    {
        "id": 766956114,
        "cohort_group": 200308,
        "final_GTGPA": 3.2243
    },
    {
        "id": 767113038,
        "cohort_group": 200308,
        "final_GTGPA": 3.2243
    },
    {
        "id": 767064513,
        "cohort_group": 200308,
        "final_GTGPA": 3.2243
    },
    {
        "id": 766970832,
        "cohort_group": 200308,
        "final_GTGPA": 3.2243
    },
    {
        "id": 767048509,
        "cohort_group": 200308,
        "final_GTGPA": 3.2243
    },
    {
        "id": 766915668,
        "cohort_group": 200308,
        "final_GTGPA": 3.2243
    },
    {
        "id": 767049606,
        "cohort_group": 200308,
        "final_GTGPA": 3.2243
    },
    {
        "id": 766985803,
        "cohort_group": 200308,
        "final_GTGPA": 3.2243
    },
    {
        "id": 766994070,
        "cohort_group": 200308,
        "final_GTGPA": 3.2243
    },
    {
        "id": 767050395,
        "cohort_group": 200308,
        "final_GTGPA": 3.2243
    },
    {
        "id": 767069226,
        "cohort_group": 200308,
        "final_GTGPA": 3.2243
    },
    {
        "id": 767007506,
        "cohort_group": 200308,
        "final_GTGPA": 3.2243
    },
    {
        "id": 767047977,
        "cohort_group": 200308,
        "final_GTGPA": 3.2243
    },
    {
        "id": 766970887,
        "cohort_group": 200308,
        "final_GTGPA": 3.2243
    },
    {
        "id": 767050427,
        "cohort_group": 200308,
        "final_GTGPA": 3.2243
    },
    {
        "id": 767094918,
        "cohort_group": 200308,
        "final_GTGPA": 3.2243
    },
    {
        "id": 766973972,
        "cohort_group": 200308,
        "final_GTGPA": 3.2243
    },
    {
        "id": 767048667,
        "cohort_group": 200308,
        "final_GTGPA": 3.2243
    },
    {
        "id": 767065942,
        "cohort_group": 200308,
        "final_GTGPA": 3.2243
    },
    {
        "id": 766917805,
        "cohort_group": 200308,
        "final_GTGPA": 3.2243
    },
    {
        "id": 765838934,
        "cohort_group": 200308,
        "final_GTGPA": 3.2243
    },
    {
        "id": 767047533,
        "cohort_group": 200308,
        "final_GTGPA": 3.2243
    },
    {
        "id": 767112050,
        "cohort_group": 200308,
        "final_GTGPA": 3.2243
    },
    {
        "id": 767065613,
        "cohort_group": 200308,
        "final_GTGPA": 3.2243
    },
    {
        "id": 766993938,
        "cohort_group": 200308,
        "final_GTGPA": 3.2243
    },
    {
        "id": 766917574,
        "cohort_group": 200308,
        "final_GTGPA": 3.2243
    },
    {
        "id": 767092938,
        "cohort_group": 200308,
        "final_GTGPA": 3.2243
    },
    {
        "id": 767041733,
        "cohort_group": 200308,
        "final_GTGPA": 3.2243
    },
    {
        "id": 767011289,
        "cohort_group": 200308,
        "final_GTGPA": 3.2243
    },
    {
        "id": 767097598,
        "cohort_group": 200308,
        "final_GTGPA": 3.2243
    },
    {
        "id": 767048800,
        "cohort_group": 200308,
        "final_GTGPA": 3.2243
    },
    {
        "id": 767050910,
        "cohort_group": 200308,
        "final_GTGPA": 3.2243
    },
    {
        "id": 767033237,
        "cohort_group": 200308,
        "final_GTGPA": 3.2243
    },
    {
        "id": 766993656,
        "cohort_group": 200308,
        "final_GTGPA": 3.2243
    },
    {
        "id": 767050936,
        "cohort_group": 200308,
        "final_GTGPA": 3.2243
    },
    {
        "id": 767064652,
        "cohort_group": 200308,
        "final_GTGPA": 3.2243
    },
    {
        "id": 767050930,
        "cohort_group": 200308,
        "final_GTGPA": 3.2243
    },
    {
        "id": 767019135,
        "cohort_group": 200308,
        "final_GTGPA": 3.2243
    },
    {
        "id": 766963029,
        "cohort_group": 200308,
        "final_GTGPA": 3.2243
    },
    {
        "id": 767065132,
        "cohort_group": 200308,
        "final_GTGPA": 3.2243
    },
    {
        "id": 766970921,
        "cohort_group": 200308,
        "final_GTGPA": 3.2243
    },
    {
        "id": 767048849,
        "cohort_group": 200308,
        "final_GTGPA": 3.2243
    }
]